-------------------------------------------------------------------------------
Test set: by.epam.training.finalproject.hotel.database.dao.UserDaoTest
-------------------------------------------------------------------------------
Tests run: 7, Failures: 0, Errors: 0, Skipped: 7, Time elapsed: 0 sec
